sep6/fmm_reduce_kernel/hls/sim/wrapc_pc/run_xsim.log
TB debug: full-matrix + per-iteration trace comparison

=== Test 0 ===
Original (rows=6 cols=8 t=0 tcap=64)
    1    2    3    0    0    0    0    0
    1    2    3    0    0    0    0    0
    0    0    0    4    1    2    0    0
    0    0    0   -4   -1   -2    0    0
    0    0    0    0    0    0    7    0
    0    0    0    0    0    0    0    9
CPU initial additions = 6
TB debug: full-matrix + per-iteration trace comparison

=== Test 0 ===
Original (rows=6 cols=8 t=0 tcap=64)
    1    2    3    0    0    0    0    0
    1    2    3    0    0    0    0    0
    0    0    0    4    1    2    0    0
    0    0    0   -4   -1   -2    0    0
    0    0    0    0    0    0    7    0
    0    0    0    0    0    0    0    9
CPU initial additions = 6
TB debug: full-matrix + per-iteration trace comparison

=== Test 0 ===
Original (rows=6 cols=8 t=0 tcap=64)
    1    2    3    0    0    0    0    0
    1    2    3    0    0    0    0    0
    0    0    0    4    1    2    0    0
    0    0    0   -4   -1   -2    0    0
    0    0    0    0    0    0    7    0
    0    0    0    0    0    0    0    9
CPU initial additions = 6
ERROR: System received a signal named SIGSEGV and the program has to stop immediately!
This signal was generated when a program tries to read or write outside the memory that is allocated for it, or to write memory that can only be read.
Possible cause of this problem may be:
  1) Missing depth information for one or more pointers to arrays in the interface;
  2) Insufficient depth setting for array argument(s);
  3) Excessive depth setting for array argument(s), that exceeds the maximum virtual memory size for the process;
  4) Null pointer etc.
Current execution stopped during CodeState = ENTER_WRAPC.
You can search CodeState variable name in apatb*.cpp file under ./sim/wrapc dir to locate the position.

TB debug: full-matrix + per-iteration trace comparison

=== Test 0 ===
Original (rows=6 cols=8 t=0 tcap=64)
    1    2    3    0    0    0    0    0
    1    2    3    0    0    0    0    0
    0    0    0    4    1    2    0    0
    0    0    0   -4   -1   -2    0    0
    0    0    0    0    0    0    7    0
    0    0    0    0    0    0    0    9
CPU initial additions = 6
ERROR: System received a signal named SIGSEGV and the program has to stop immediately!
This signal was generated when a program tries to read or write outside the memory that is allocated for it, or to write memory that can only be read.
Possible cause of this problem may be:
  1) Missing depth information for one or more pointers to arrays in the interface;
  2) Insufficient depth setting for array argument(s);
  3) Excessive depth setting for array argument(s), that exceeds the maximum virtual memory size for the process;
  4) Null pointer etc.
Current execution stopped during CodeState = ENTER_WRAPC.
You can search CodeState variable name in apatb*.cpp file under ./sim/wrapc dir to locate the position.

TB debug: full-matrix + per-iteration trace comparison

=== Test 0 ===
Original (rows=6 cols=8 t=0 tcap=64)
    1    2    3    0    0    0    0    0
    1    2    3    0    0    0    0    0
    0    0    0    4    1    2    0    0
    0    0    0   -4   -1   -2    0    0
    0    0    0    0    0    0    7    0
    0    0    0    0    0    0    0    9
CPU initial additions = 6
ERROR: System received a signal named SIGSEGV and the program has to stop immediately!
This signal was generated when a program tries to read or write outside the memory that is allocated for it, or to write memory that can only be read.
Possible cause of this problem may be:
  1) Missing depth information for one or more pointers to arrays in the interface;
  2) Insufficient depth setting for array argument(s);
  3) Excessive depth setting for array argument(s), that exceeds the maximum virtual memory size for the process;
  4) Null pointer etc.
Current execution stopped during CodeState = ENTER_WRAPC.
You can search CodeState variable name in apatb*.cpp file under ./sim/wrapc dir to locate the position.

TB debug: full-matrix + per-iteration trace comparison

=== Test 0 ===
Original (rows=6 cols=8 t=0 tcap=64)
    1    2    3    0    0    0    0    0
    1    2    3    0    0    0    0    0
    0    0    0    4    1    2    0    0
    0    0    0   -4   -1   -2    0    0
    0    0    0    0    0    0    7    0
    0    0    0    0    0    0    0    9
CPU initial additions = 6
Kernel output (original region) (rows=6 cols=8 t=0 tcap=64)
    0    0    0    0    0    0    0    0
    0    0    0    0    0    0    0    0
    0    0    0    0    0    0    0    0
    0    0    0    0    0    0    0    0
    0    0    0    0    0    0    7    0
    0    0    0    0    0    0    0    9
CPU reference (original region + t-space might be present in ref) (rows=6 cols=8 t=2 tcap=64)
    0    0    0    0    0    0    0    0
    0    0    0    0    0    0    0    0
    0    0    0    0    0    0    0    0
    0    0    0    0    0    0    0    0
    0    0    0    0    0    0    7    0
    0    0    0    0    0    0    0    9
CPU final additions = 2

Kernel trace (iter,r1,r2,sign,adds):
(0,-1,-1,0,6)
(1,0,1,1,4)
(2,2,3,-1,2)

CPU trace (iter,r1,r2,sign,adds):
(0,-1,-1,0,6)
(1,0,1,1,4)
(2,2,3,-1,2)

TRACE MATCH: kernel and CPU have identical per-iteration sequences.
MATRIX MATCH: kernel original-region equals CPU original-region.

=== Test 1 ===
Original (rows=16 cols=32 t=0 tcap=64)
    0    0    0    0    0    0    0    0    0    0    0    0   -5    0    0    0    0    0    0    0    0    0    0    0    0    0    0    0   -1    0    0    0
    0    0    0    0    0   -3    0    0    0    0    0   -1    0    0    0    0    0    0    0    0    3    0    0    0    0    4    0   -3    0    0    0    0
    0    0    1    0    0    0    0    0    0   -4    0    0    0    0    0    0    0    0    0    0    0    0    0    0   -6    0    0    0    0    5    0    0
    0    3    0    0    0    0    0    0    0    0    0    0    0    0    0    0    0    0    0    0    0    4    0    0    0    0   -2    0    0    0    0   -6
    0    0    0    0    0    0    0    0    0    0    0    0    0    0    0    0    0    0    0    0    0    0    0    0    0    0    0    0    0    0    0    0
    0    0    0    0    0    0    0    0    0    0    0    0    0    0    0   -4    0   -5    0   -4    0    0    0    0    6    0    0    0    0    0    0    0
    0    0    0    0    0    0    0    0    0    0    0    0    0    0    0    0    0    0    0    0    0    0    0    0    0    0    0    0    0    0    0    0
    0    0    0   -2    0    0    2    0    0    0    0    0    0    0    0    5    0    0    0    0    0    0    0    0    0    0    0    0    0    0    0    0
    0    0    0    0    0    0    0    0    0    0    0    5    0    0    0    0    0    0    0    0    0    2    0    0    0    0   -5    0    0    0    0    0
   -3    0    0    0    0    0    0    4    0    0    0    0    0    0    0    0    0    0    0    0    0    0    0    0    0    0    0    0    0    0    0    0
    0    0    0    0    0    0    0    0    0   -6    0    0    4    0    2    0    0    0    0    0    0    0    0    0    0    0    0    4    0    0    0    0
    0    0    0    0   -5    0    0    0   -5    0    0    0    0    0    0    0    0    0    0    0    0    0    0    0    0    0    0    0    0    6    0    0
    0    0   -2    0    0    0    0    0    0    0    0    0    0    0    0    0    0    0    0    0    0    0    4    0    0    0    0    0    0    0    0    0
    0    0    0    0    0   -1    0    0    0    0    0    0   -6    2    0    0    0    0    0   -2    0    0    0    0    0    0    0    0   -1    0    0    0
    0    6    0    0    0    0    6    0    0    0    0    0    0    0    0    0    0    0    0    0    0    0    0    0    0    0    0    0    0    0    0    0
    0    0    0    0    0   -3    0    0    0    0    0    0    0    0    0    0    0    0   -5    0   -4    0    6    0    0    0    0    0    0    0    3    0
CPU initial additions = 19
Kernel output (original region) (rows=16 cols=32 t=0 tcap=64)
    0    0    0    0    0    0    0    0    0    0    0    0   -5    0    0    0    0    0    0    0    0    0    0    0    0    0    0    0   -1    0    0    0
    0    0    0    0    0   -3    0    0    0    0    0   -1    0    0    0    0    0    0    0    0    3    0    0    0    0    4    0   -3    0    0    0    0
    0    0    1    0    0    0    0    0    0   -4    0    0    0    0    0    0    0    0    0    0    0    0    0    0   -6    0    0    0    0    5    0    0
    0    3    0    0    0    0    0    0    0    0    0    0    0    0    0    0    0    0    0    0    0    4    0    0    0    0   -2    0    0    0    0   -6
    0    0    0    0    0    0    0    0    0    0    0    0    0    0    0    0    0    0    0    0    0    0    0    0    0    0    0    0    0    0    0    0
    0    0    0    0    0    0    0    0    0    0    0    0    0    0    0   -4    0   -5    0   -4    0    0    0    0    6    0    0    0    0    0    0    0
    0    0    0    0    0    0    0    0    0    0    0    0    0    0    0    0    0    0    0    0    0    0    0    0    0    0    0    0    0    0    0    0
    0    0    0   -2    0    0    2    0    0    0    0    0    0    0    0    5    0    0    0    0    0    0    0    0    0    0    0    0    0    0    0    0
    0    0    0    0    0    0    0    0    0    0    0    5    0    0    0    0    0    0    0    0    0    2    0    0    0    0   -5    0    0    0    0    0
   -3    0    0    0    0    0    0    4    0    0    0    0    0    0    0    0    0    0    0    0    0    0    0    0    0    0    0    0    0    0    0    0
    0    0    0    0    0    0    0    0    0   -6    0    0    4    0    2    0    0    0    0    0    0    0    0    0    0    0    0    4    0    0    0    0
    0    0    0    0   -5    0    0    0   -5    0    0    0    0    0    0    0    0    0    0    0    0    0    0    0    0    0    0    0    0    6    0    0
    0    0   -2    0    0    0    0    0    0    0    0    0    0    0    0    0    0    0    0    0    0    0    4    0    0    0    0    0    0    0    0    0
    0    0    0    0    0   -1    0    0    0    0    0    0   -6    2    0    0    0    0    0   -2    0    0    0    0    0    0    0    0   -1    0    0    0
    0    6    0    0    0    0    6    0    0    0    0    0    0    0    0    0    0    0    0    0    0    0    0    0    0    0    0    0    0    0    0    0
    0    0    0    0    0   -3    0    0    0    0    0    0    0    0    0    0    0    0   -5    0   -4    0    6    0    0    0    0    0    0    0    3    0
CPU reference (original region + t-space might be present in ref) (rows=16 cols=32 t=0 tcap=64)
    0    0    0    0    0    0    0    0    0    0    0    0   -5    0    0    0    0    0    0    0    0    0    0    0    0    0    0    0   -1    0    0    0
    0    0    0    0    0   -3    0    0    0    0    0   -1    0    0    0    0    0    0    0    0    3    0    0    0    0    4    0   -3    0    0    0    0
    0    0    1    0    0    0    0    0    0   -4    0    0    0    0    0    0    0    0    0    0    0    0    0    0   -6    0    0    0    0    5    0    0
    0    3    0    0    0    0    0    0    0    0    0    0    0    0    0    0    0    0    0    0    0    4    0    0    0    0   -2    0    0    0    0   -6
    0    0    0    0    0    0    0    0    0    0    0    0    0    0    0    0    0    0    0    0    0    0    0    0    0    0    0    0    0    0    0    0
    0    0    0    0    0    0    0    0    0    0    0    0    0    0    0   -4    0   -5    0   -4    0    0    0    0    6    0    0    0    0    0    0    0
    0    0    0    0    0    0    0    0    0    0    0    0    0    0    0    0    0    0    0    0    0    0    0    0    0    0    0    0    0    0    0    0
    0    0    0   -2    0    0    2    0    0    0    0    0    0    0    0    5    0    0    0    0    0    0    0    0    0    0    0    0    0    0    0    0
    0    0    0    0    0    0    0    0    0    0    0    5    0    0    0    0    0    0    0    0    0    2    0    0    0    0   -5    0    0    0    0    0
   -3    0    0    0    0    0    0    4    0    0    0    0    0    0    0    0    0    0    0    0    0    0    0    0    0    0    0    0    0    0    0    0
    0    0    0    0    0    0    0    0    0   -6    0    0    4    0    2    0    0    0    0    0    0    0    0    0    0    0    0    4    0    0    0    0
    0    0    0    0   -5    0    0    0   -5    0    0    0    0    0    0    0    0    0    0    0    0    0    0    0    0    0    0    0    0    6    0    0
    0    0   -2    0    0    0    0    0    0    0    0    0    0    0    0    0    0    0    0    0    0    0    4    0    0    0    0    0    0    0    0    0
    0    0    0    0    0   -1    0    0    0    0    0    0   -6    2    0    0    0    0    0   -2    0    0    0    0    0    0    0    0   -1    0    0    0
    0    6    0    0    0    0    6    0    0    0    0    0    0    0    0    0    0    0    0    0    0    0    0    0    0    0    0    0    0    0    0    0
    0    0    0    0    0   -3    0    0    0    0    0    0    0    0    0    0    0    0   -5    0   -4    0    6    0    0    0    0    0    0    0    3    0
CPU final additions = 19

Kernel trace (iter,r1,r2,sign,adds):
(0,-1,-1,0,19)

CPU trace (iter,r1,r2,sign,adds):
(0,-1,-1,0,19)

TRACE MATCH: kernel and CPU have identical per-iteration sequences.
MATRIX MATCH: kernel original-region equals CPU original-region.

All tests completed.

C:\GEMM\sep6\fmm_reduce_kernel\hls\sim\verilog>set PATH= 

C:\GEMM\sep6\fmm_reduce_kernel\hls\sim\verilog>call C:/Xilinx/2025.1/Vivado/bin/xelab xil_defaultlib.apatb_fmm_reduce_kernel_top xil_defaultlib.glbl -Oenable_linking_all_libraries -prj fmm_reduce_kernel.prj -L smartconnect_v1_0 -L axi_protocol_checker_v1_1_12 -L axi_protocol_checker_v1_1_13 -L axis_protocol_checker_v1_1_11 -L axis_protocol_checker_v1_1_12 -L xil_defaultlib -L unisims_ver -L xpm  -L floating_point_v7_1_20 -L floating_point_v7_0_25 --lib "ieee_proposed=./ieee_proposed" -L uvm -relax -i ./svr -i ./axivip -i ./svtb -i ./file_agent -i ./fmm_reduce_kernel_subsystem  -s fmm_reduce_kernel  
Vivado Simulator v2025.1.0
Copyright 1986-2022 Xilinx, Inc. All Rights Reserved.
Copyright 2022-2025 Advanced Micro Devices, Inc. All Rights Reserved.
Running: C:/Xilinx/2025.1/Vivado/bin/unwrapped/win64.o/xelab.exe xil_defaultlib.apatb_fmm_reduce_kernel_top xil_defaultlib.glbl -Oenable_linking_all_libraries -prj fmm_reduce_kernel.prj -L smartconnect_v1_0 -L axi_protocol_checker_v1_1_12 -L axi_protocol_checker_v1_1_13 -L axis_protocol_checker_v1_1_11 -L axis_protocol_checker_v1_1_12 -L xil_defaultlib -L unisims_ver -L xpm -L floating_point_v7_1_20 -L floating_point_v7_0_25 --lib ieee_proposed=./ieee_proposed -L uvm -relax -i ./svr -i ./axivip -i ./svtb -i ./file_agent -i ./fmm_reduce_kernel_subsystem -s fmm_reduce_kernel 
Multi-threading is on. Using 18 slave threads.
INFO: [VRFC 10-2263] Analyzing SystemVerilog file "C:/GEMM/sep6/fmm_reduce_kernel/hls/sim/verilog/glbl.v" into library xil_defaultlib
INFO: [VRFC 10-311] analyzing module glbl
INFO: [VRFC 10-2263] Analyzing SystemVerilog file "C:/GEMM/sep6/fmm_reduce_kernel/hls/sim/verilog/AESL_deadlock_detection_unit.v" into library xil_defaultlib
INFO: [VRFC 10-311] analyzing module AESL_deadlock_detect_unit
INFO: [VRFC 10-2263] Analyzing SystemVerilog file "C:/GEMM/sep6/fmm_reduce_kernel/hls/sim/verilog/AESL_deadlock_detector.v" into library xil_defaultlib
INFO: [VRFC 10-311] analyzing module AESL_deadlock_detector
INFO: [VRFC 10-2263] Analyzing SystemVerilog file "C:/GEMM/sep6/fmm_reduce_kernel/hls/sim/verilog/AESL_deadlock_report_unit.v" into library xil_defaultlib
INFO: [VRFC 10-311] analyzing module AESL_deadlock_report_unit
INFO: [VRFC 10-2263] Analyzing SystemVerilog file "C:/GEMM/sep6/fmm_reduce_kernel/hls/sim/verilog/fmm_reduce_kernel.autotb.v" into library xil_defaultlib
INFO: [VRFC 10-311] analyzing module apatb_fmm_reduce_kernel_top
INFO: [VRFC 10-2263] Analyzing SystemVerilog file "C:/GEMM/sep6/fmm_reduce_kernel/hls/sim/verilog/fmm_reduce_kernel.v" into library xil_defaultlib
INFO: [VRFC 10-311] analyzing module fmm_reduce_kernel
INFO: [VRFC 10-2263] Analyzing SystemVerilog file "C:/GEMM/sep6/fmm_reduce_kernel/hls/sim/verilog/fmm_reduce_kernel_Block_entry_proc.v" into library xil_defaultlib
INFO: [VRFC 10-311] analyzing module fmm_reduce_kernel_Block_entry_proc
INFO: [VRFC 10-2263] Analyzing SystemVerilog file "C:/GEMM/sep6/fmm_reduce_kernel/hls/sim/verilog/fmm_reduce_kernel_Block_entry_proc_1.v" into library xil_defaultlib
INFO: [VRFC 10-311] analyzing module fmm_reduce_kernel_Block_entry_proc_1
INFO: [VRFC 10-2263] Analyzing SystemVerilog file "C:/GEMM/sep6/fmm_reduce_kernel/hls/sim/verilog/fmm_reduce_kernel_Block_entry_proc_M_e_RAM_AUTO_1R1W.v" into library xil_defaultlib
INFO: [VRFC 10-311] analyzing module fmm_reduce_kernel_Block_entry_proc_M_e_RAM_AUTO_1R1W
INFO: [VRFC 10-2263] Analyzing SystemVerilog file "C:/GEMM/sep6/fmm_reduce_kernel/hls/sim/verilog/fmm_reduce_kernel_control_r_s_axi.v" into library xil_defaultlib
INFO: [VRFC 10-311] analyzing module fmm_reduce_kernel_control_r_s_axi
INFO: [VRFC 10-2263] Analyzing SystemVerilog file "C:/GEMM/sep6/fmm_reduce_kernel/hls/sim/verilog/fmm_reduce_kernel_control_s_axi.v" into library xil_defaultlib
INFO: [VRFC 10-311] analyzing module fmm_reduce_kernel_control_s_axi
INFO: [VRFC 10-2263] Analyzing SystemVerilog file "C:/GEMM/sep6/fmm_reduce_kernel/hls/sim/verilog/fmm_reduce_kernel_entry_proc.v" into library xil_defaultlib
INFO: [VRFC 10-311] analyzing module fmm_reduce_kernel_entry_proc
INFO: [VRFC 10-2263] Analyzing SystemVerilog file "C:/GEMM/sep6/fmm_reduce_kernel/hls/sim/verilog/fmm_reduce_kernel_fifo_w1_d2_S.v" into library xil_defaultlib
INFO: [VRFC 10-311] analyzing module fmm_reduce_kernel_fifo_w1_d2_S
INFO: [VRFC 10-311] analyzing module fmm_reduce_kernel_fifo_w1_d2_S_ShiftReg
INFO: [VRFC 10-2263] Analyzing SystemVerilog file "C:/GEMM/sep6/fmm_reduce_kernel/hls/sim/verilog/fmm_reduce_kernel_fifo_w32_d2_S.v" into library xil_defaultlib
INFO: [VRFC 10-311] analyzing module fmm_reduce_kernel_fifo_w32_d2_S
INFO: [VRFC 10-311] analyzing module fmm_reduce_kernel_fifo_w32_d2_S_ShiftReg
INFO: [VRFC 10-2263] Analyzing SystemVerilog file "C:/GEMM/sep6/fmm_reduce_kernel/hls/sim/verilog/fmm_reduce_kernel_fifo_w32_d3_S.v" into library xil_defaultlib
INFO: [VRFC 10-311] analyzing module fmm_reduce_kernel_fifo_w32_d3_S
INFO: [VRFC 10-311] analyzing module fmm_reduce_kernel_fifo_w32_d3_S_ShiftReg
INFO: [VRFC 10-2263] Analyzing SystemVerilog file "C:/GEMM/sep6/fmm_reduce_kernel/hls/sim/verilog/fmm_reduce_kernel_fifo_w64_d3_S.v" into library xil_defaultlib
INFO: [VRFC 10-311] analyzing module fmm_reduce_kernel_fifo_w64_d3_S
INFO: [VRFC 10-311] analyzing module fmm_reduce_kernel_fifo_w64_d3_S_ShiftReg
INFO: [VRFC 10-2263] Analyzing SystemVerilog file "C:/GEMM/sep6/fmm_reduce_kernel/hls/sim/verilog/fmm_reduce_kernel_flow_control_loop_pipe_sequential_init.v" into library xil_defaultlib
INFO: [VRFC 10-311] analyzing module fmm_reduce_kernel_flow_control_loop_pipe_sequential_init
INFO: [VRFC 10-2263] Analyzing SystemVerilog file "C:/GEMM/sep6/fmm_reduce_kernel/hls/sim/verilog/fmm_reduce_kernel_gmem2_m_axi.v" into library xil_defaultlib
INFO: [VRFC 10-311] analyzing module fmm_reduce_kernel_gmem2_m_axi
INFO: [VRFC 10-311] analyzing module fmm_reduce_kernel_gmem2_m_axi_store
INFO: [VRFC 10-311] analyzing module fmm_reduce_kernel_gmem2_m_axi_write
INFO: [VRFC 10-311] analyzing module fmm_reduce_kernel_gmem2_m_axi_burst_converter
INFO: [VRFC 10-311] analyzing module fmm_reduce_kernel_gmem2_m_axi_burst_interleave
INFO: [VRFC 10-311] analyzing module fmm_reduce_kernel_gmem2_m_axi_burst_sequential
INFO: [VRFC 10-311] analyzing module fmm_reduce_kernel_gmem2_m_axi_throttle
INFO: [VRFC 10-311] analyzing module fmm_reduce_kernel_gmem2_m_axi_reg_slice
INFO: [VRFC 10-311] analyzing module fmm_reduce_kernel_gmem2_m_axi_fifo
INFO: [VRFC 10-311] analyzing module fmm_reduce_kernel_gmem2_m_axi_srl
INFO: [VRFC 10-311] analyzing module fmm_reduce_kernel_gmem2_m_axi_mem
INFO: [VRFC 10-2263] Analyzing SystemVerilog file "C:/GEMM/sep6/fmm_reduce_kernel/hls/sim/verilog/fmm_reduce_kernel_gmem_m_axi.v" into library xil_defaultlib
INFO: [VRFC 10-311] analyzing module fmm_reduce_kernel_gmem_m_axi
INFO: [VRFC 10-311] analyzing module fmm_reduce_kernel_gmem_m_axi_load
INFO: [VRFC 10-311] analyzing module fmm_reduce_kernel_gmem_m_axi_store
INFO: [VRFC 10-311] analyzing module fmm_reduce_kernel_gmem_m_axi_read
INFO: [VRFC 10-311] analyzing module fmm_reduce_kernel_gmem_m_axi_write
INFO: [VRFC 10-311] analyzing module fmm_reduce_kernel_gmem_m_axi_burst_converter
INFO: [VRFC 10-311] analyzing module fmm_reduce_kernel_gmem_m_axi_burst_interleave
INFO: [VRFC 10-311] analyzing module fmm_reduce_kernel_gmem_m_axi_burst_sequential
INFO: [VRFC 10-311] analyzing module fmm_reduce_kernel_gmem_m_axi_throttle
INFO: [VRFC 10-311] analyzing module fmm_reduce_kernel_gmem_m_axi_reg_slice
INFO: [VRFC 10-311] analyzing module fmm_reduce_kernel_gmem_m_axi_fifo
INFO: [VRFC 10-311] analyzing module fmm_reduce_kernel_gmem_m_axi_srl
INFO: [VRFC 10-311] analyzing module fmm_reduce_kernel_gmem_m_axi_mem
INFO: [VRFC 10-2263] Analyzing SystemVerilog file "C:/GEMM/sep6/fmm_reduce_kernel/hls/sim/verilog/fmm_reduce_kernel_greedy_potential_reduce_with_debug.v" into library xil_defaultlib
INFO: [VRFC 10-311] analyzing module fmm_reduce_kernel_greedy_potential_reduce_with_debug
INFO: [VRFC 10-2263] Analyzing SystemVerilog file "C:/GEMM/sep6/fmm_reduce_kernel/hls/sim/verilog/fmm_reduce_kernel_greedy_potential_reduce_with_debug_Pipeline_VITIS_LOOP_104_1_VITIS_LOOP_93_1.v" into library xil_defaultlib
INFO: [VRFC 10-311] analyzing module fmm_reduce_kernel_greedy_potential_reduce_with_debug_Pipeline_VITIS_LOOP_104_1_VITIS_LOOP_93_1
INFO: [VRFC 10-2263] Analyzing SystemVerilog file "C:/GEMM/sep6/fmm_reduce_kernel/hls/sim/verilog/fmm_reduce_kernel_greedy_potential_reduce_with_debug_Pipeline_VITIS_LOOP_104_1_VITIS_LOOP_93_111.v" into library xil_defaultlib
INFO: [VRFC 10-311] analyzing module fmm_reduce_kernel_greedy_potential_reduce_with_debug_Pipeline_VITIS_LOOP_104_1_VITIS_LOOP_93_111
INFO: [VRFC 10-2263] Analyzing SystemVerilog file "C:/GEMM/sep6/fmm_reduce_kernel/hls/sim/verilog/fmm_reduce_kernel_greedy_potential_reduce_with_debug_Pipeline_VITIS_LOOP_116_1.v" into library xil_defaultlib
INFO: [VRFC 10-311] analyzing module fmm_reduce_kernel_greedy_potential_reduce_with_debug_Pipeline_VITIS_LOOP_116_1
INFO: [VRFC 10-2263] Analyzing SystemVerilog file "C:/GEMM/sep6/fmm_reduce_kernel/hls/sim/verilog/fmm_reduce_kernel_greedy_potential_reduce_with_debug_Pipeline_VITIS_LOOP_116_13.v" into library xil_defaultlib
INFO: [VRFC 10-311] analyzing module fmm_reduce_kernel_greedy_potential_reduce_with_debug_Pipeline_VITIS_LOOP_116_13
INFO: [VRFC 10-2263] Analyzing SystemVerilog file "C:/GEMM/sep6/fmm_reduce_kernel/hls/sim/verilog/fmm_reduce_kernel_greedy_potential_reduce_with_debug_Pipeline_VITIS_LOOP_116_14.v" into library xil_defaultlib
INFO: [VRFC 10-311] analyzing module fmm_reduce_kernel_greedy_potential_reduce_with_debug_Pipeline_VITIS_LOOP_116_14
INFO: [VRFC 10-2263] Analyzing SystemVerilog file "C:/GEMM/sep6/fmm_reduce_kernel/hls/sim/verilog/fmm_reduce_kernel_greedy_potential_reduce_with_debug_Pipeline_VITIS_LOOP_136_1.v" into library xil_defaultlib
INFO: [VRFC 10-311] analyzing module fmm_reduce_kernel_greedy_potential_reduce_with_debug_Pipeline_VITIS_LOOP_136_1
INFO: [VRFC 10-2263] Analyzing SystemVerilog file "C:/GEMM/sep6/fmm_reduce_kernel/hls/sim/verilog/fmm_reduce_kernel_greedy_potential_reduce_with_debug_Pipeline_VITIS_LOOP_136_110.v" into library xil_defaultlib
INFO: [VRFC 10-311] analyzing module fmm_reduce_kernel_greedy_potential_reduce_with_debug_Pipeline_VITIS_LOOP_136_110
INFO: [VRFC 10-2263] Analyzing SystemVerilog file "C:/GEMM/sep6/fmm_reduce_kernel/hls/sim/verilog/fmm_reduce_kernel_greedy_potential_reduce_with_debug_Pipeline_VITIS_LOOP_136_15.v" into library xil_defaultlib
INFO: [VRFC 10-311] analyzing module fmm_reduce_kernel_greedy_potential_reduce_with_debug_Pipeline_VITIS_LOOP_136_15
INFO: [VRFC 10-2263] Analyzing SystemVerilog file "C:/GEMM/sep6/fmm_reduce_kernel/hls/sim/verilog/fmm_reduce_kernel_greedy_potential_reduce_with_debug_Pipeline_VITIS_LOOP_158_1.v" into library xil_defaultlib
INFO: [VRFC 10-311] analyzing module fmm_reduce_kernel_greedy_potential_reduce_with_debug_Pipeline_VITIS_LOOP_158_1
INFO: [VRFC 10-2263] Analyzing SystemVerilog file "C:/GEMM/sep6/fmm_reduce_kernel/hls/sim/verilog/fmm_reduce_kernel_greedy_potential_reduce_with_debug_Pipeline_VITIS_LOOP_158_17.v" into library xil_defaultlib
INFO: [VRFC 10-311] analyzing module fmm_reduce_kernel_greedy_potential_reduce_with_debug_Pipeline_VITIS_LOOP_158_17
INFO: [VRFC 10-2263] Analyzing SystemVerilog file "C:/GEMM/sep6/fmm_reduce_kernel/hls/sim/verilog/fmm_reduce_kernel_greedy_potential_reduce_with_debug_Pipeline_VITIS_LOOP_164_2.v" into library xil_defaultlib
INFO: [VRFC 10-311] analyzing module fmm_reduce_kernel_greedy_potential_reduce_with_debug_Pipeline_VITIS_LOOP_164_2
INFO: [VRFC 10-2263] Analyzing SystemVerilog file "C:/GEMM/sep6/fmm_reduce_kernel/hls/sim/verilog/fmm_reduce_kernel_greedy_potential_reduce_with_debug_Pipeline_VITIS_LOOP_164_28.v" into library xil_defaultlib
INFO: [VRFC 10-311] analyzing module fmm_reduce_kernel_greedy_potential_reduce_with_debug_Pipeline_VITIS_LOOP_164_28
INFO: [VRFC 10-2263] Analyzing SystemVerilog file "C:/GEMM/sep6/fmm_reduce_kernel/hls/sim/verilog/fmm_reduce_kernel_greedy_potential_reduce_with_debug_Pipeline_VITIS_LOOP_175_3.v" into library xil_defaultlib
INFO: [VRFC 10-311] analyzing module fmm_reduce_kernel_greedy_potential_reduce_with_debug_Pipeline_VITIS_LOOP_175_3
INFO: [VRFC 10-2263] Analyzing SystemVerilog file "C:/GEMM/sep6/fmm_reduce_kernel/hls/sim/verilog/fmm_reduce_kernel_greedy_potential_reduce_with_debug_Pipeline_VITIS_LOOP_175_39.v" into library xil_defaultlib
INFO: [VRFC 10-311] analyzing module fmm_reduce_kernel_greedy_potential_reduce_with_debug_Pipeline_VITIS_LOOP_175_39
INFO: [VRFC 10-2263] Analyzing SystemVerilog file "C:/GEMM/sep6/fmm_reduce_kernel/hls/sim/verilog/fmm_reduce_kernel_greedy_potential_reduce_with_debug_Pipeline_VITIS_LOOP_193_2_VITIS_LOOP_116_1.v" into library xil_defaultlib
INFO: [VRFC 10-311] analyzing module fmm_reduce_kernel_greedy_potential_reduce_with_debug_Pipeline_VITIS_LOOP_193_2_VITIS_LOOP_116_1
INFO: [VRFC 10-2263] Analyzing SystemVerilog file "C:/GEMM/sep6/fmm_reduce_kernel/hls/sim/verilog/fmm_reduce_kernel_greedy_potential_reduce_with_debug_Pipeline_VITIS_LOOP_193_2_VITIS_LOOP_116_16.v" into library xil_defaultlib
INFO: [VRFC 10-311] analyzing module fmm_reduce_kernel_greedy_potential_reduce_with_debug_Pipeline_VITIS_LOOP_193_2_VITIS_LOOP_116_16
INFO: [VRFC 10-2263] Analyzing SystemVerilog file "C:/GEMM/sep6/fmm_reduce_kernel/hls/sim/verilog/fmm_reduce_kernel_load_matrix_from_dram_safe.v" into library xil_defaultlib
INFO: [VRFC 10-311] analyzing module fmm_reduce_kernel_load_matrix_from_dram_safe
INFO: [VRFC 10-2263] Analyzing SystemVerilog file "C:/GEMM/sep6/fmm_reduce_kernel/hls/sim/verilog/fmm_reduce_kernel_load_matrix_from_dram_safe_Pipeline_VITIS_LOOP_50_1_VITIS_LOOP_52_2.v" into library xil_defaultlib
INFO: [VRFC 10-311] analyzing module fmm_reduce_kernel_load_matrix_from_dram_safe_Pipeline_VITIS_LOOP_50_1_VITIS_LOOP_52_2
INFO: [VRFC 10-2263] Analyzing SystemVerilog file "C:/GEMM/sep6/fmm_reduce_kernel/hls/sim/verilog/fmm_reduce_kernel_load_matrix_from_dram_safe_Pipeline_VITIS_LOOP_59_3_VITIS_LOOP_60_4.v" into library xil_defaultlib
INFO: [VRFC 10-311] analyzing module fmm_reduce_kernel_load_matrix_from_dram_safe_Pipeline_VITIS_LOOP_59_3_VITIS_LOOP_60_4
INFO: [VRFC 10-2263] Analyzing SystemVerilog file "C:/GEMM/sep6/fmm_reduce_kernel/hls/sim/verilog/fmm_reduce_kernel_mul_31ns_31ns_62_1_1.v" into library xil_defaultlib
INFO: [VRFC 10-311] analyzing module fmm_reduce_kernel_mul_31ns_31ns_62_1_1
INFO: [VRFC 10-2263] Analyzing SystemVerilog file "C:/GEMM/sep6/fmm_reduce_kernel/hls/sim/verilog/fmm_reduce_kernel_mul_32ns_34ns_64_1_1.v" into library xil_defaultlib
INFO: [VRFC 10-311] analyzing module fmm_reduce_kernel_mul_32ns_34ns_64_1_1
INFO: [VRFC 10-2263] Analyzing SystemVerilog file "C:/GEMM/sep6/fmm_reduce_kernel/hls/sim/verilog/fmm_reduce_kernel_mul_32s_31ns_62_1_1.v" into library xil_defaultlib
INFO: [VRFC 10-311] analyzing module fmm_reduce_kernel_mul_32s_31ns_62_1_1
INFO: [VRFC 10-2263] Analyzing SystemVerilog file "C:/GEMM/sep6/fmm_reduce_kernel/hls/sim/verilog/fmm_reduce_kernel_mul_32s_32s_32_1_1.v" into library xil_defaultlib
INFO: [VRFC 10-311] analyzing module fmm_reduce_kernel_mul_32s_32s_32_1_1
INFO: [VRFC 10-2263] Analyzing SystemVerilog file "C:/GEMM/sep6/fmm_reduce_kernel/hls/sim/verilog/fmm_reduce_kernel_mul_32s_32s_64_1_1.v" into library xil_defaultlib
INFO: [VRFC 10-311] analyzing module fmm_reduce_kernel_mul_32s_32s_64_1_1
